{
  "id": 10,
  "contact": {
    "firstName": "H\u00e9l\u00e8ne",
    "lastName": "Wattiaux",
    "birthday": "07/10/1995",
    "mail": "wattiaux.helene@hotmail.fr",
    "phone": "0760000710",
    "img": "profil.png"
  },
  "social": {
    "fb": "",
    "lkdn": "https://www.linkedin.com/in/h\u00e9l\u00e8ne-wattiaux-96470b121/",
    "twtr": "https://twitter.com/Hellycia_",
    "insta": "",
    "github": "",
    "gitlab": "",
    "so": "",
    "Others": []
  },
  "medias": {
    "pdfCV": "cv.pdf",
    "linkCV": "",
    "realisations": [],
    "video": "video.mp4"
  },
  "badges": [
    { "id": 1, "enabled": true },
    { "id": 2, "enabled": true },
    { "id": 3, "enabled": false },
    { "id": 8, "enabled": false },
    { "id": 27, "enabled": false },
    { "id": 29, "enabled": false },
    { "id": 34, "enabled": false },
    { "id": 35, "enabled": false },
    { "id": 38, "enabled": true },
    { "id": 1008, "enabled": true },
    { "id": 1011, "enabled": true },
    { "id": 1013, "enabled": true },
    { "id": 1018, "enabled": true },
    { "id": 1023, "enabled": true },
    { "id": 1024, "enabled": true },
    { "id": 1028, "enabled": true },
    { "id": 1031, "enabled": true }
  ],
  "status": { "adopted": false, "promo": "A2 Dev" },
  "comments": []
}
